1488 969 182
460 5939 238
2633 728 209
7457 90 262
9393 6260 260
4969 6540 262
4439 4676 184
7500 2249 262
2306 4011 238
4170 5202 215
6188 3343 262
8865 143 262
2256 1885 183
5848 2851 238
9249 7249 252
6420 4642 262
2757 7810 262
924 2586 209
1987 1583 180
5132 2141 238
4178 6532 262
7215 8900 252
3550 5431 238
609 9585 262
8389 1513 262
4511 9932 262
7668 4707 262
259 7928 262
9020 2940 262
9377 5805 262
9412 573 262
3862 7260 262
1261 6742 262
2431 8080 262
4891 1636 238
6923 4533 262
4932 5068 197
5394 6246 262
5625 6707 262
6382 8566 257
8983 8399 247
2219 4059 238
9629 3739 262
4627 9489 262
4619 2497 238
6981 265 262
4646 9027 262
7555 5434 262
3603 7469 262
925 9297 262
9887 7319 260
1857 1534 180
1112 32 179
7987 2503 262
1832 805 182
396 2660 209
123 4911 238
598 3018 217
1830 8197 262
6571 3430 262
6888 574 262
630 9245 262
3526 716 217
5746 4019 236
8113 6894 257
293 3961 238
8769 5910 262
2303 2484 209
9925 5634 262
1883 661 182
3617 5667 238
7797 7163 239
28 3247 217
3178 6886 262
467 7341 262
5487 8665 262
4409 1547 238
5342 5105 192
4544 8715 262
3830 5942 236
3863 9510 262
5988 3104 238
2698 6968 262
7964 5365 262
1508 4099 238
5249 3142 238
4199 9031 262
7733 1761 262
1894 1813 175
5372 3271 238
7786 3166 262
8678 7998 234
9711 9217 260
3748 6933 262
1446 1084 182
6008 731 238
538 4585 238
1949 6177 262
9345 3778 262
2973 4567 238
9640 3363 262
1667 1677 136
6930 4712 262
3277 2945 199
6412 7763 257
9238 5754 262
2419 7952 262
7402 6823 257
2124 5727 238
6802 6091 262
7458 5517 262
5232 7180 262
3840 390 238
3788 1988 238
4790 3372 238
1207 5946 238
4179 9088 262
2596 4293 238
6402 8471 257
3239 3225 168
2205 2159 139
5534 6938 262
8921 4986 262
5602 3438 238
2152 3215 217
4760 4506 184
6684 872 262
7407 1509 262
1296 5159 238
8939 7396 252
2835 2177 209
3306 3511 181
5461 6959 262
5435 1603 238
8843 4965 262
9455 864 262
3210 8601 262
6046 5986 187
5912 8118 262
8005 2643 262
3125 1493 217
6704 2200 262
9390 8458 260
6121 2184 238
6210 2488 262
433 4096 238
9462 959 262
2852 1527 209
5303 6086 236
2420 9056 262
5810 3355 238
2195 9660 262
8476 4470 262
5483 7795 262
4353 1749 238
2070 8444 262
4403 3410 238
5429 6163 236
2389 7642 262
2948 2844 217
932 4943 238
5069 2067 238
2562 2550 178
6630 4256 262
5098 1611 238
6167 9885 262
6856 2629 262
4444 8003 262
7627 7470 208
284 306 118
7765 6290 257
8986 6836 257
5282 561 238
2905 9479 262
2096 2270 183
2909 917 209
6687 1347 262
8472 8073 234
4649 1305 238
5522 8049 262
9051 7008 252
1290 3402 217
8388 5268 262
3017 5130 238
100 8657 262
1983 9601 262
1044 5447 238
3624 5809 238
7985 4560 262
9400 5387 262
4643 7589 262
3861 5024 215
5018 4984 179
2044 570 182
3331 3715 238
7899 8692 252
6459 8810 257
8828 2208 262
7922 399 262
6483 967 262
8327 8760 234
1462 9152 262
314 7455 262
4525 3212 238
2726 6170 238
916 9812 262
3498 8694 262
3393 7053 262
8359 5918 262
8985 4478 262
1568 7294 262
5482 2099 238
4562 2544 238
7658 3033 262
4080 7522 262
6185 4394 262
8879 7228 252
3199 7594 262
2154 6837 262
1714 821 182
1620 1847 180
6622 8404 257
8811 5016 262
9250 1050 262
2995 5960 238
9387 3762 262
952 4000 238
9832 1370 262
8896 1862 262
8273 8378 234
5227 6689 262
318 5673 238
7851 597 262
6701 5722 262
5664 7380 262
2345 213 183
329 3350 217
1681 9617 262
9064 5505 262
2192 9336 262
1476 9398 262
8186 2578 262
5566 1801 238
7542 426 262
2860 5926 238
441 8586 262
1759 1838 162
4890 5472 210
5941 2385 238
4763 9639 262
